[{
      "bannerid":59292312,
      "reason":"Destructive commander",
      "duration":0,
      "id":10486415,
      "time":0,
      "name":"Neigma",
      "bannedby":"Shameless"
    },{
      "bannerid":59292312,
      "reason":"Willfully disrespectful",
      "duration":0,
      "id":55403834,
      "time":0,
      "name":"I Like Big Guts",
      "bannedby":"Shameless"
    },{
      "bannerid":59292312,
      "reason":"Destructive commander",
      "duration":0,
      "id":128791508,
      "time":0,
      "name":"sa",
      "bannedby":"Shameless"
    },{
      "bannerid":59292312,
      "reason":"Destructive commander",
      "duration":0,
      "id":9904695,
      "time":0,
      "name":"Jason Mog",
      "bannedby":"Shameless"
    },{
      "bannerid":59292312,
      "reason":"Destructive commander",
      "duration":0,
      "id":23767143,
      "time":0,
      "name":"rosco_simmons",
      "bannedby":"Shameless"
    },{
      "bannerid":59292312,
      "reason":"Destructive commander",
      "duration":0,
      "id":26900124,
      "time":0,
      "name":"-|TBG|- HeatSurge",
      "bannedby":"Shameless"
    }]