{
    "SpecsCanHearAllVoiceComms":true,
    "SendMessageOnJoinSpec":true,
    "SpectatorsDontTakeSlots":true,
    "LeaveSpecMessage":"Reducing server capacity due to leaving spectators.",
    "SendMessageOnLeaveSpec":false,
    "ForceEvenTeamsAfterGameStart":true,
    "JoinSpecMessage":"Control which team voices you hear (M > TF > Spec Voice)",
    "ReduceMaxPlayersBasedOnPopulation":true
  }