{
    "CountdownTime":15,
    "StateMessages":[
    	"Waiting for admin to select captains.",
		"Waiting for admin to select captains.",
		"Waiting for captains to pick teams.\nRound will start once both teams are ready and have a commander.",
		"Round complete.\nNext round will start once both teams are ready and have a commander."
    	],
    "BlockGameStart":false,
    "StateMessageLast":"",
    "MinPlayers":2,
    "MinVotesToPass":0.8,
    "MaxVoteTime":1,
    "VoteforCaptains":false,
    "StateMessageColour":[77,230,0],
    "StateMessagePosX":0.05,
    "StateMessagePosY":0.25,
    "MaxWaitForCaptains":4,
    "AllowPregameJoin":false,
    "VoteTimeMessage":"Voting will end in %s.",
    "AllowSpectating":true,
    "StateMessageFirst":""
  }