{
    "Round":1,
    "Rounds":[{
        "68213393":1.2333333333333,
        "79278710":4.1666666666667,
        "100164631":1.4,
        "118813468":1.75,
        "49981403":4.25,
        "55581027":1.5625,
        "37995819":0.86111111111111,
        "13486297":2,
        "16491843":3.3529411764706,
        "70544483":2.5625,
        "62844362":1.6944444444444,
        "124869947":2.15
      },{
        "183466541":0.19230769230769,
        "31402288":9,
        "20273084":1.1153846153846,
        "61994272":0.33333333333333,
        "51470176":15.5,
        "28221725":9,
        "128566797":1,
        "59660419":0.53571428571429,
        "64954488":1.8888888888889,
        "13486297":0.27777777777778,
        "101221946":0.30769230769231,
        "37863684":0.70833333333333,
        "91031407":2.5,
        "34519965":3.8125
      },{
        "3503710":1
      }]
  }