{
    "EmptyPlayerCount": 0,
    "MaxExtends": 0,
    "DontExtend": [  ],
    "VoteDelay": 5,
    "MinPlayers": 1,
    "VoteLength": 1,
    "ChangeDelay": 5,
    "RoundLimit": 0,
    "PercentToFinish": 0.8,
    "IgnoreAutoCycle": [  ],
    "ExtendTime": 15,
    "ExcludeLastMaps": 0,
    "Maps": {
      "co_pulse": true,
      "co_sava": true,
      "co_kestrel": true,
      "co_core": true,
      "co_p33": true,
      "cp_kestrel": true
    },
    "ChooseRandomOnTie": true,
    "MaxRevotes": 1,
    "CycleOnEmpty": true,
    "PercentToStart": 0.6,
    "NextMapVote": 1,
    "ForceChange": 60,
    "GetMapsFromMapCycle": true,
    "ShowVoteChoices": true,
    "TieFails": false,
    "EnableNextMapVote": true,
    "AlwaysExtend": false,
    "EnableRTV": true,
    "ForcedMaps": [  ],
    "MaxOptions": 6,
    "AllowExtend": false
  }