{
  "maps": [ 
  	"ns2_kodiak", 
  	"ns2_eclipse", 
  	"ns2_biodome", 
  	"ns2_descent", 
  	"ns2_docking", 
  	"ns2_mineshaft", 
  	"ns2_refinery", 
  	"ns2_summit", 
  	"ns2_tram", 
  	"ns2_veil",
  	{ "map": "ns2_caged", "mods": [ "63c559c" ] },
  	{ "map": "ns2_mineral", "mods": [ "d873977" ] },
    { "map": "ns2_hydra", "mods": [ "13bceec3" ] },
    { "map": "ns2_nyx", "mods": [ "1415d1a6" ] },
    { "map": "ns2_jambi", "mods": [ "7b986f5" ] },
    { "map": "ns2_veil_five", "mods": [ "fdf2c56" ] }
  ],
  "time": 30,
  "mode": "random",
  "mods": [ "706d242", "812f004", "b7149f9", "101ab256", "11eaaa6c", "12e30acc"  ]
}