{
  "maps": [ 
  	"ns2_kodiak", 
  	"ns2_eclipse", 
  	"ns2_biodome", 
  	"ns2_descent", 
  	"ns2_docking", 
  	"ns2_mineshaft", 
  	"ns2_refinery", 
  	"ns2_summit", 
  	"ns2_tram", 
  	"ns2_veil",
    { "map": "ns2_jambi", "mods": [ "7b986f5" ] },
    { "map": "ns2_caged", "mods": [ "63c559c" ] },
    { "map": "ns2_mineral", "mods": [ "d873977" ] },
    { "map": "ns2_nexus", "mods": [ "17b0e28c" ] }
  ],
  "time": 999,
  "mode": "random",
  "mods": [ "706d242", "812f004", "a2ddae8", "e5ffa15" ]
}