{
    "MessageText": [ 
    	"Join the Tactical Freedom Steam group for a reserved slot (M > MOTD)"
	],
    "URL": "http://tacticalfreedom.com/",
    "Delay": 5,
    "Mode": 3,
    "Accepted": [  ]
  }