{
    "BalanceMode": 5,
    "IgnoreCommanders": true,
    "Duration": 0.01,
    "MinPlayers": 2,
    "InstantForce": true,
    "MaxStoredRounds": 3,
    "ReconnectLogTime": 0,
    "BlockAfterTime": 0.01,
    "PercentNeeded": 0.5,
    "BlockTeams": false,
    "AlwaysEnabled": false,
    "IgnoreSpectators": true,
    "VoteTimeout": 45,
    "RandomOnNextRound": false,
    "FallbackMode": 4
  }