{
    "ShowGeneric": false,
    "Users": {
      "90000001": {
        "Leave": "Bob is off to fight more important battles.",
        "Welcome": "Bob has joined the party!"
      }
    },
    "MessageDelay": 5
  }